{
  "content": [
    {
      "name": "New York Yankees",
      "abbreviation": "NYY",
      "league": "AL",
      "division": "East"
    }
  ],
  "page": {
    "size": 10,
    "number": 0,
    "totalElements": 20,
    "totalPages": 2
  }
}